{
    "records": [
        {
            "attributes": {
                "type": "Product2",
                "referenceId": "Product2Ref1"
            },
            "Name": "Product 1",
            "ProductCode": "P1",
            "Port__c": "Port 5",
            "Port_Code__c": "pc5",
            "IsActive": true
        },
        {
            "attributes": {
                "type": "Product2",
                "referenceId": "Product2Ref2"
            },
            "Name": "Product 1",
            "ProductCode": "P1",
            "Port__c": "Port 4",
            "Port_Code__c": "pc4",
            "IsActive": true
        },
        {
            "attributes": {
                "type": "Product2",
                "referenceId": "Product2Ref3"
            },
            "Name": "Product 1",
            "ProductCode": "P1",
            "Port__c": "Port 1",
            "Port_Code__c": "pc1",
            "IsActive": true
        },
        {
            "attributes": {
                "type": "Product2",
                "referenceId": "Product2Ref4"
            },
            "Name": "Product 1",
            "ProductCode": "P1",
            "Port__c": "Port 3",
            "Port_Code__c": "pc3",
            "IsActive": true
        },
        {
            "attributes": {
                "type": "Product2",
                "referenceId": "Product2Ref5"
            },
            "Name": "Product 1",
            "ProductCode": "P1",
            "Port__c": "Port 2",
            "Port_Code__c": "pc2",
            "IsActive": true
        }
    ]
}